// Bun Snapshot v1, https://goo.gl/fbAQLP

exports[`Parser: basic arithmetic Standalone constant: 1 1`] = `
{
  "code": "1",
  "name": "integer",
  "pos": {
    "columnBegin": 1,
    "columnEnd": undefined,
    "index": 0,
    "rowBegin": 1,
    "rowEnd": undefined,
  },
  "typeInfo": TypeInfo {
    "name": "int",
    "position": {
      "columnBegin": 1,
      "columnEnd": undefined,
      "index": 0,
      "rowBegin": 1,
      "rowEnd": undefined,
    },
    "typeArguments": [],
  },
  "value": "1",
}
`;

exports[`Parser: basic arithmetic Simple sum: 1 + 2 1`] = `
{
  "code": "1",
  "left": {
    "code": "1",
    "name": "integer",
    "pos": {
      "columnBegin": 1,
      "columnEnd": 4,
      "index": 0,
      "rowBegin": 1,
      "rowEnd": 1,
    },
    "typeInfo": TypeInfo {
      "name": "int",
      "position": {
        "columnBegin": 1,
        "columnEnd": 4,
        "index": 0,
        "rowBegin": 1,
        "rowEnd": 1,
      },
      "typeArguments": [],
    },
    "value": "1",
  },
  "name": "addition",
  "pos": {
    "columnBegin": 3,
    "columnEnd": 4,
    "index": 2,
    "rowBegin": 1,
    "rowEnd": 1,
  },
  "right": {
    "code": "2",
    "name": "integer",
    "pos": {
      "columnBegin": 5,
      "columnEnd": undefined,
      "index": 4,
      "rowBegin": 1,
      "rowEnd": undefined,
    },
    "typeInfo": TypeInfo {
      "name": "int",
      "position": {
        "columnBegin": 5,
        "columnEnd": undefined,
        "index": 4,
        "rowBegin": 1,
        "rowEnd": undefined,
      },
      "typeArguments": [],
    },
    "value": "2",
  },
}
`;

exports[`Parser: basic arithmetic Boolean true: true 1`] = `
{
  "code": "true",
  "name": "boolean",
  "pos": {
    "columnBegin": 1,
    "columnEnd": undefined,
    "index": 0,
    "rowBegin": 1,
    "rowEnd": undefined,
  },
  "typeInfo": TypeInfo {
    "name": "bool",
    "position": {
      "columnBegin": 1,
      "columnEnd": undefined,
      "index": 0,
      "rowBegin": 1,
      "rowEnd": undefined,
    },
    "typeArguments": [],
  },
  "value": true,
}
`;

exports[`Parser: basic arithmetic Boolean false: false 1`] = `
{
  "code": "false",
  "name": "boolean",
  "pos": {
    "columnBegin": 1,
    "columnEnd": undefined,
    "index": 0,
    "rowBegin": 1,
    "rowEnd": undefined,
  },
  "typeInfo": TypeInfo {
    "name": "bool",
    "position": {
      "columnBegin": 1,
      "columnEnd": undefined,
      "index": 0,
      "rowBegin": 1,
      "rowEnd": undefined,
    },
    "typeArguments": [],
  },
  "value": false,
}
`;
