// Bun Snapshot v1, https://goo.gl/fbAQLP

exports[`Parser: functions Simple delegate - zero arguments: const f = -> 2 + 2; 1`] = `
{
  "children": [
    {
      "code": "const f undefined undefined -> 2",
      "expression": {
        "arguments": [],
        "body": {
          "children": [
            {
              "code": "undefined -> 2",
              "expression": {
                "code": "2",
                "left": {
                  "code": "2",
                  "name": "integer",
                  "pos": {
                    "columnBegin": 14,
                    "columnEnd": 17,
                    "index": 13,
                    "rowBegin": 1,
                    "rowEnd": 1,
                  },
                  "typeInfo": TypeInfo {
                    "name": "int",
                    "position": {
                      "columnBegin": 14,
                      "columnEnd": 17,
                      "index": 13,
                      "rowBegin": 1,
                      "rowEnd": 1,
                    },
                    "typeArguments": [],
                  },
                  "value": "2",
                },
                "name": "addition",
                "pos": {
                  "columnBegin": 16,
                  "columnEnd": 17,
                  "index": 15,
                  "rowBegin": 1,
                  "rowEnd": 1,
                },
                "right": {
                  "code": "2",
                  "name": "integer",
                  "pos": {
                    "columnBegin": 18,
                    "columnEnd": 20,
                    "index": 17,
                    "rowBegin": 1,
                    "rowEnd": 1,
                  },
                  "typeInfo": TypeInfo {
                    "name": "int",
                    "position": {
                      "columnBegin": 18,
                      "columnEnd": 20,
                      "index": 17,
                      "rowBegin": 1,
                      "rowEnd": 1,
                    },
                    "typeArguments": [],
                  },
                  "value": "2",
                },
              },
              "name": "return",
              "pos": {
                "columnBegin": 16,
                "columnEnd": 17,
                "index": 15,
                "rowBegin": 1,
                "rowEnd": 1,
              },
            },
          ],
          "code": "undefined -> 2",
          "name": "block",
          "pos": {
            "columnBegin": 16,
            "columnEnd": 17,
            "index": 15,
            "rowBegin": 1,
            "rowEnd": 1,
          },
        },
        "code": "undefined -> 2",
        "name": "function",
        "pos": {
          "columnBegin": 11,
          "columnEnd": 13,
          "index": 10,
          "rowBegin": 1,
          "rowEnd": 1,
        },
        "returnType": null,
      },
      "modifier": "const",
      "name": "declaration",
      "pos": {
        "columnBegin": 1,
        "columnEnd": 6,
        "index": 0,
        "rowBegin": 1,
        "rowEnd": 1,
      },
      "variableName": "f",
      "variableType": undefined,
    },
  ],
  "code": "const f undefined undefined -> 2",
  "name": "program",
  "pos": {
    "columnBegin": 1,
    "columnEnd": 6,
    "index": 0,
    "rowBegin": 1,
    "rowEnd": 1,
  },
}
`;

exports[`Parser: functions Simple delegate - single argument: const f = x:int -> x * x; 1`] = `
{
  "children": [
    {
      "code": "const f undefined x -> * x",
      "expression": {
        "arguments": [
          {
            "argumentName": "x",
            "code": "x",
            "name": "function_argument",
            "pos": {
              "columnBegin": 11,
              "columnEnd": 12,
              "index": 10,
              "rowBegin": 1,
              "rowEnd": 1,
            },
            "type": TypeInfo {
              "name": "int",
              "position": {
                "columnBegin": 13,
                "columnEnd": 16,
                "index": 12,
                "rowBegin": 1,
                "rowEnd": 1,
              },
              "typeArguments": [],
            },
          },
        ],
        "body": {
          "children": [
            {
              "code": "x -> * x",
              "expression": {
                "code": "* x",
                "left": {
                  "code": "x",
                  "name": "identifier",
                  "pos": {
                    "columnBegin": 20,
                    "columnEnd": 21,
                    "index": 19,
                    "rowBegin": 1,
                    "rowEnd": 1,
                  },
                  "variableName": "x",
                },
                "name": "multiplication",
                "pos": {
                  "columnBegin": 22,
                  "columnEnd": 23,
                  "index": 21,
                  "rowBegin": 1,
                  "rowEnd": 1,
                },
                "right": {
                  "code": "x",
                  "name": "identifier",
                  "pos": {
                    "columnBegin": 24,
                    "columnEnd": 25,
                    "index": 23,
                    "rowBegin": 1,
                    "rowEnd": 1,
                  },
                  "variableName": "x",
                },
              },
              "name": "return",
              "pos": {
                "columnBegin": 22,
                "columnEnd": 23,
                "index": 21,
                "rowBegin": 1,
                "rowEnd": 1,
              },
            },
          ],
          "code": "x -> * x",
          "name": "block",
          "pos": {
            "columnBegin": 22,
            "columnEnd": 23,
            "index": 21,
            "rowBegin": 1,
            "rowEnd": 1,
          },
        },
        "code": "x -> * x",
        "name": "function",
        "pos": {
          "columnBegin": 11,
          "columnEnd": 12,
          "index": 10,
          "rowBegin": 1,
          "rowEnd": 1,
        },
        "returnType": null,
      },
      "modifier": "const",
      "name": "declaration",
      "pos": {
        "columnBegin": 1,
        "columnEnd": 6,
        "index": 0,
        "rowBegin": 1,
        "rowEnd": 1,
      },
      "variableName": "f",
      "variableType": undefined,
    },
  ],
  "code": "const f undefined x -> * x",
  "name": "program",
  "pos": {
    "columnBegin": 1,
    "columnEnd": 6,
    "index": 0,
    "rowBegin": 1,
    "rowEnd": 1,
  },
}
`;

exports[`Parser: functions Simple delegate - multiple arguments: const f = x:int, y:int -> x * y; 1`] = `
{
  "children": [
    {
      "code": "const f undefined x y -> * y",
      "expression": {
        "arguments": [
          {
            "argumentName": "x",
            "code": "x",
            "name": "function_argument",
            "pos": {
              "columnBegin": 11,
              "columnEnd": 12,
              "index": 10,
              "rowBegin": 1,
              "rowEnd": 1,
            },
            "type": TypeInfo {
              "name": "int",
              "position": {
                "columnBegin": 13,
                "columnEnd": 16,
                "index": 12,
                "rowBegin": 1,
                "rowEnd": 1,
              },
              "typeArguments": [],
            },
          },
          {
            "argumentName": "y",
            "code": "y",
            "name": "function_argument",
            "pos": {
              "columnBegin": 18,
              "columnEnd": 19,
              "index": 17,
              "rowBegin": 1,
              "rowEnd": 1,
            },
            "type": TypeInfo {
              "name": "int",
              "position": {
                "columnBegin": 20,
                "columnEnd": 23,
                "index": 19,
                "rowBegin": 1,
                "rowEnd": 1,
              },
              "typeArguments": [],
            },
          },
        ],
        "body": {
          "children": [
            {
              "code": "x y -> * y",
              "expression": {
                "code": "* y",
                "left": {
                  "code": "x",
                  "name": "identifier",
                  "pos": {
                    "columnBegin": 27,
                    "columnEnd": 28,
                    "index": 26,
                    "rowBegin": 1,
                    "rowEnd": 1,
                  },
                  "variableName": "x",
                },
                "name": "multiplication",
                "pos": {
                  "columnBegin": 29,
                  "columnEnd": 30,
                  "index": 28,
                  "rowBegin": 1,
                  "rowEnd": 1,
                },
                "right": {
                  "code": "y",
                  "name": "identifier",
                  "pos": {
                    "columnBegin": 31,
                    "columnEnd": 32,
                    "index": 30,
                    "rowBegin": 1,
                    "rowEnd": 1,
                  },
                  "variableName": "y",
                },
              },
              "name": "return",
              "pos": {
                "columnBegin": 29,
                "columnEnd": 30,
                "index": 28,
                "rowBegin": 1,
                "rowEnd": 1,
              },
            },
          ],
          "code": "x y -> * y",
          "name": "block",
          "pos": {
            "columnBegin": 29,
            "columnEnd": 30,
            "index": 28,
            "rowBegin": 1,
            "rowEnd": 1,
          },
        },
        "code": "x y -> * y",
        "name": "function",
        "pos": {
          "columnBegin": 11,
          "columnEnd": 12,
          "index": 10,
          "rowBegin": 1,
          "rowEnd": 1,
        },
        "returnType": null,
      },
      "modifier": "const",
      "name": "declaration",
      "pos": {
        "columnBegin": 1,
        "columnEnd": 6,
        "index": 0,
        "rowBegin": 1,
        "rowEnd": 1,
      },
      "variableName": "f",
      "variableType": undefined,
    },
  ],
  "code": "const f undefined x y -> * y",
  "name": "program",
  "pos": {
    "columnBegin": 1,
    "columnEnd": 6,
    "index": 0,
    "rowBegin": 1,
    "rowEnd": 1,
  },
}
`;

exports[`Parser: functions Local function definition: const add = x:int, y:int -> x + y; 1`] = `
{
  "children": [
    {
      "code": "const add undefined x y -> x",
      "expression": {
        "arguments": [
          {
            "argumentName": "x",
            "code": "x",
            "name": "function_argument",
            "pos": {
              "columnBegin": 13,
              "columnEnd": 14,
              "index": 12,
              "rowBegin": 1,
              "rowEnd": 1,
            },
            "type": TypeInfo {
              "name": "int",
              "position": {
                "columnBegin": 15,
                "columnEnd": 18,
                "index": 14,
                "rowBegin": 1,
                "rowEnd": 1,
              },
              "typeArguments": [],
            },
          },
          {
            "argumentName": "y",
            "code": "y",
            "name": "function_argument",
            "pos": {
              "columnBegin": 20,
              "columnEnd": 21,
              "index": 19,
              "rowBegin": 1,
              "rowEnd": 1,
            },
            "type": TypeInfo {
              "name": "int",
              "position": {
                "columnBegin": 22,
                "columnEnd": 25,
                "index": 21,
                "rowBegin": 1,
                "rowEnd": 1,
              },
              "typeArguments": [],
            },
          },
        ],
        "body": {
          "children": [
            {
              "code": "x y -> x",
              "expression": {
                "code": "x",
                "left": {
                  "code": "x",
                  "name": "identifier",
                  "pos": {
                    "columnBegin": 29,
                    "columnEnd": 30,
                    "index": 28,
                    "rowBegin": 1,
                    "rowEnd": 1,
                  },
                  "variableName": "x",
                },
                "name": "addition",
                "pos": {
                  "columnBegin": 31,
                  "columnEnd": 32,
                  "index": 30,
                  "rowBegin": 1,
                  "rowEnd": 1,
                },
                "right": {
                  "code": "y",
                  "name": "identifier",
                  "pos": {
                    "columnBegin": 33,
                    "columnEnd": 34,
                    "index": 32,
                    "rowBegin": 1,
                    "rowEnd": 1,
                  },
                  "variableName": "y",
                },
              },
              "name": "return",
              "pos": {
                "columnBegin": 31,
                "columnEnd": 32,
                "index": 30,
                "rowBegin": 1,
                "rowEnd": 1,
              },
            },
          ],
          "code": "x y -> x",
          "name": "block",
          "pos": {
            "columnBegin": 31,
            "columnEnd": 32,
            "index": 30,
            "rowBegin": 1,
            "rowEnd": 1,
          },
        },
        "code": "x y -> x",
        "name": "function",
        "pos": {
          "columnBegin": 13,
          "columnEnd": 14,
          "index": 12,
          "rowBegin": 1,
          "rowEnd": 1,
        },
        "returnType": null,
      },
      "modifier": "const",
      "name": "declaration",
      "pos": {
        "columnBegin": 1,
        "columnEnd": 6,
        "index": 0,
        "rowBegin": 1,
        "rowEnd": 1,
      },
      "variableName": "add",
      "variableType": undefined,
    },
  ],
  "code": "const add undefined x y -> x",
  "name": "program",
  "pos": {
    "columnBegin": 1,
    "columnEnd": 6,
    "index": 0,
    "rowBegin": 1,
    "rowEnd": 1,
  },
}
`;

exports[`Parser: functions Local function definition - with parenthesis: const add = x:int, y:int -> x + y; 1`] = `
{
  "children": [
    {
      "code": "const add undefined x y -> x",
      "expression": {
        "arguments": [
          {
            "argumentName": "x",
            "code": "x",
            "name": "function_argument",
            "pos": {
              "columnBegin": 13,
              "columnEnd": 14,
              "index": 12,
              "rowBegin": 1,
              "rowEnd": 1,
            },
            "type": TypeInfo {
              "name": "int",
              "position": {
                "columnBegin": 15,
                "columnEnd": 18,
                "index": 14,
                "rowBegin": 1,
                "rowEnd": 1,
              },
              "typeArguments": [],
            },
          },
          {
            "argumentName": "y",
            "code": "y",
            "name": "function_argument",
            "pos": {
              "columnBegin": 20,
              "columnEnd": 21,
              "index": 19,
              "rowBegin": 1,
              "rowEnd": 1,
            },
            "type": TypeInfo {
              "name": "int",
              "position": {
                "columnBegin": 22,
                "columnEnd": 25,
                "index": 21,
                "rowBegin": 1,
                "rowEnd": 1,
              },
              "typeArguments": [],
            },
          },
        ],
        "body": {
          "children": [
            {
              "code": "x y -> x",
              "expression": {
                "code": "x",
                "left": {
                  "code": "x",
                  "name": "identifier",
                  "pos": {
                    "columnBegin": 29,
                    "columnEnd": 30,
                    "index": 28,
                    "rowBegin": 1,
                    "rowEnd": 1,
                  },
                  "variableName": "x",
                },
                "name": "addition",
                "pos": {
                  "columnBegin": 31,
                  "columnEnd": 32,
                  "index": 30,
                  "rowBegin": 1,
                  "rowEnd": 1,
                },
                "right": {
                  "code": "y",
                  "name": "identifier",
                  "pos": {
                    "columnBegin": 33,
                    "columnEnd": 34,
                    "index": 32,
                    "rowBegin": 1,
                    "rowEnd": 1,
                  },
                  "variableName": "y",
                },
              },
              "name": "return",
              "pos": {
                "columnBegin": 31,
                "columnEnd": 32,
                "index": 30,
                "rowBegin": 1,
                "rowEnd": 1,
              },
            },
          ],
          "code": "x y -> x",
          "name": "block",
          "pos": {
            "columnBegin": 31,
            "columnEnd": 32,
            "index": 30,
            "rowBegin": 1,
            "rowEnd": 1,
          },
        },
        "code": "x y -> x",
        "name": "function",
        "pos": {
          "columnBegin": 13,
          "columnEnd": 14,
          "index": 12,
          "rowBegin": 1,
          "rowEnd": 1,
        },
        "returnType": null,
      },
      "modifier": "const",
      "name": "declaration",
      "pos": {
        "columnBegin": 1,
        "columnEnd": 6,
        "index": 0,
        "rowBegin": 1,
        "rowEnd": 1,
      },
      "variableName": "add",
      "variableType": undefined,
    },
  ],
  "code": "const add undefined x y -> x",
  "name": "program",
  "pos": {
    "columnBegin": 1,
    "columnEnd": 6,
    "index": 0,
    "rowBegin": 1,
    "rowEnd": 1,
  },
}
`;

exports[`Parser: functions Full body delegate - zero arguments: const f = -> { 2 + 2; }; 1`] = `
{
  "children": [
    {
      "code": "const f undefined undefined -> 2",
      "expression": {
        "arguments": [],
        "body": {
          "children": [
            {
              "code": "2",
              "left": {
                "code": "2",
                "name": "integer",
                "pos": {
                  "columnBegin": 16,
                  "columnEnd": 19,
                  "index": 15,
                  "rowBegin": 1,
                  "rowEnd": 1,
                },
                "typeInfo": TypeInfo {
                  "name": "int",
                  "position": {
                    "columnBegin": 16,
                    "columnEnd": 19,
                    "index": 15,
                    "rowBegin": 1,
                    "rowEnd": 1,
                  },
                  "typeArguments": [],
                },
                "value": "2",
              },
              "name": "addition",
              "pos": {
                "columnBegin": 18,
                "columnEnd": 19,
                "index": 17,
                "rowBegin": 1,
                "rowEnd": 1,
              },
              "right": {
                "code": "2",
                "name": "integer",
                "pos": {
                  "columnBegin": 20,
                  "columnEnd": 22,
                  "index": 19,
                  "rowBegin": 1,
                  "rowEnd": 1,
                },
                "typeInfo": TypeInfo {
                  "name": "int",
                  "position": {
                    "columnBegin": 20,
                    "columnEnd": 22,
                    "index": 19,
                    "rowBegin": 1,
                    "rowEnd": 1,
                  },
                  "typeArguments": [],
                },
                "value": "2",
              },
            },
          ],
          "code": "2",
          "name": "block",
          "pos": {
            "columnBegin": 18,
            "columnEnd": 19,
            "index": 17,
            "rowBegin": 1,
            "rowEnd": 1,
          },
        },
        "code": "undefined -> 2",
        "name": "function",
        "pos": {
          "columnBegin": 11,
          "columnEnd": 13,
          "index": 10,
          "rowBegin": 1,
          "rowEnd": 1,
        },
        "returnType": null,
      },
      "modifier": "const",
      "name": "declaration",
      "pos": {
        "columnBegin": 1,
        "columnEnd": 6,
        "index": 0,
        "rowBegin": 1,
        "rowEnd": 1,
      },
      "variableName": "f",
      "variableType": undefined,
    },
  ],
  "code": "const f undefined undefined -> 2",
  "name": "program",
  "pos": {
    "columnBegin": 1,
    "columnEnd": 6,
    "index": 0,
    "rowBegin": 1,
    "rowEnd": 1,
  },
}
`;

exports[`Parser: functions Full body delegate - single argument: const f = x: int -> { x * x; }; 1`] = `
{
  "children": [
    {
      "code": "const f undefined x -> * x",
      "expression": {
        "arguments": [
          {
            "argumentName": "x",
            "code": "x",
            "name": "function_argument",
            "pos": {
              "columnBegin": 11,
              "columnEnd": 12,
              "index": 10,
              "rowBegin": 1,
              "rowEnd": 1,
            },
            "type": TypeInfo {
              "name": "int",
              "position": {
                "columnBegin": 14,
                "columnEnd": 17,
                "index": 13,
                "rowBegin": 1,
                "rowEnd": 1,
              },
              "typeArguments": [],
            },
          },
        ],
        "body": {
          "children": [
            {
              "code": "* x",
              "left": {
                "code": "x",
                "name": "identifier",
                "pos": {
                  "columnBegin": 23,
                  "columnEnd": 24,
                  "index": 22,
                  "rowBegin": 1,
                  "rowEnd": 1,
                },
                "variableName": "x",
              },
              "name": "multiplication",
              "pos": {
                "columnBegin": 25,
                "columnEnd": 26,
                "index": 24,
                "rowBegin": 1,
                "rowEnd": 1,
              },
              "right": {
                "code": "x",
                "name": "identifier",
                "pos": {
                  "columnBegin": 27,
                  "columnEnd": 28,
                  "index": 26,
                  "rowBegin": 1,
                  "rowEnd": 1,
                },
                "variableName": "x",
              },
            },
          ],
          "code": "* x",
          "name": "block",
          "pos": {
            "columnBegin": 25,
            "columnEnd": 26,
            "index": 24,
            "rowBegin": 1,
            "rowEnd": 1,
          },
        },
        "code": "x -> * x",
        "name": "function",
        "pos": {
          "columnBegin": 11,
          "columnEnd": 12,
          "index": 10,
          "rowBegin": 1,
          "rowEnd": 1,
        },
        "returnType": null,
      },
      "modifier": "const",
      "name": "declaration",
      "pos": {
        "columnBegin": 1,
        "columnEnd": 6,
        "index": 0,
        "rowBegin": 1,
        "rowEnd": 1,
      },
      "variableName": "f",
      "variableType": undefined,
    },
  ],
  "code": "const f undefined x -> * x",
  "name": "program",
  "pos": {
    "columnBegin": 1,
    "columnEnd": 6,
    "index": 0,
    "rowBegin": 1,
    "rowEnd": 1,
  },
}
`;

exports[`Parser: functions Full body delegate - multiple arguments: const f = x: int, y: int -> { x * y; }; 1`] = `
{
  "children": [
    {
      "code": "const f undefined x y -> * y",
      "expression": {
        "arguments": [
          {
            "argumentName": "x",
            "code": "x",
            "name": "function_argument",
            "pos": {
              "columnBegin": 11,
              "columnEnd": 12,
              "index": 10,
              "rowBegin": 1,
              "rowEnd": 1,
            },
            "type": TypeInfo {
              "name": "int",
              "position": {
                "columnBegin": 14,
                "columnEnd": 17,
                "index": 13,
                "rowBegin": 1,
                "rowEnd": 1,
              },
              "typeArguments": [],
            },
          },
          {
            "argumentName": "y",
            "code": "y",
            "name": "function_argument",
            "pos": {
              "columnBegin": 19,
              "columnEnd": 20,
              "index": 18,
              "rowBegin": 1,
              "rowEnd": 1,
            },
            "type": TypeInfo {
              "name": "int",
              "position": {
                "columnBegin": 22,
                "columnEnd": 25,
                "index": 21,
                "rowBegin": 1,
                "rowEnd": 1,
              },
              "typeArguments": [],
            },
          },
        ],
        "body": {
          "children": [
            {
              "code": "* y",
              "left": {
                "code": "x",
                "name": "identifier",
                "pos": {
                  "columnBegin": 31,
                  "columnEnd": 32,
                  "index": 30,
                  "rowBegin": 1,
                  "rowEnd": 1,
                },
                "variableName": "x",
              },
              "name": "multiplication",
              "pos": {
                "columnBegin": 33,
                "columnEnd": 34,
                "index": 32,
                "rowBegin": 1,
                "rowEnd": 1,
              },
              "right": {
                "code": "y",
                "name": "identifier",
                "pos": {
                  "columnBegin": 35,
                  "columnEnd": 36,
                  "index": 34,
                  "rowBegin": 1,
                  "rowEnd": 1,
                },
                "variableName": "y",
              },
            },
          ],
          "code": "* y",
          "name": "block",
          "pos": {
            "columnBegin": 33,
            "columnEnd": 34,
            "index": 32,
            "rowBegin": 1,
            "rowEnd": 1,
          },
        },
        "code": "x y -> * y",
        "name": "function",
        "pos": {
          "columnBegin": 11,
          "columnEnd": 12,
          "index": 10,
          "rowBegin": 1,
          "rowEnd": 1,
        },
        "returnType": null,
      },
      "modifier": "const",
      "name": "declaration",
      "pos": {
        "columnBegin": 1,
        "columnEnd": 6,
        "index": 0,
        "rowBegin": 1,
        "rowEnd": 1,
      },
      "variableName": "f",
      "variableType": undefined,
    },
  ],
  "code": "const f undefined x y -> * y",
  "name": "program",
  "pos": {
    "columnBegin": 1,
    "columnEnd": 6,
    "index": 0,
    "rowBegin": 1,
    "rowEnd": 1,
  },
}
`;

exports[`Parser: functions Function call: 
        const multiply = x: int, y: int -> x * y;
        multiply(2,5);
       1`] = `
{
  "children": [
    {
      "code": "const multiply undefined x y -> * y",
      "expression": {
        "arguments": [
          {
            "argumentName": "x",
            "code": "x",
            "name": "function_argument",
            "pos": {
              "columnBegin": 26,
              "columnEnd": 27,
              "index": 26,
              "rowBegin": 2,
              "rowEnd": 2,
            },
            "type": TypeInfo {
              "name": "int",
              "position": {
                "columnBegin": 29,
                "columnEnd": 32,
                "index": 29,
                "rowBegin": 2,
                "rowEnd": 2,
              },
              "typeArguments": [],
            },
          },
          {
            "argumentName": "y",
            "code": "y",
            "name": "function_argument",
            "pos": {
              "columnBegin": 34,
              "columnEnd": 35,
              "index": 34,
              "rowBegin": 2,
              "rowEnd": 2,
            },
            "type": TypeInfo {
              "name": "int",
              "position": {
                "columnBegin": 37,
                "columnEnd": 40,
                "index": 37,
                "rowBegin": 2,
                "rowEnd": 2,
              },
              "typeArguments": [],
            },
          },
        ],
        "body": {
          "children": [
            {
              "code": "x y -> * y",
              "expression": {
                "code": "* y",
                "left": {
                  "code": "x",
                  "name": "identifier",
                  "pos": {
                    "columnBegin": 44,
                    "columnEnd": 45,
                    "index": 44,
                    "rowBegin": 2,
                    "rowEnd": 2,
                  },
                  "variableName": "x",
                },
                "name": "multiplication",
                "pos": {
                  "columnBegin": 46,
                  "columnEnd": 47,
                  "index": 46,
                  "rowBegin": 2,
                  "rowEnd": 2,
                },
                "right": {
                  "code": "y",
                  "name": "identifier",
                  "pos": {
                    "columnBegin": 48,
                    "columnEnd": 49,
                    "index": 48,
                    "rowBegin": 2,
                    "rowEnd": 2,
                  },
                  "variableName": "y",
                },
              },
              "name": "return",
              "pos": {
                "columnBegin": 46,
                "columnEnd": 47,
                "index": 46,
                "rowBegin": 2,
                "rowEnd": 2,
              },
            },
          ],
          "code": "x y -> * y",
          "name": "block",
          "pos": {
            "columnBegin": 46,
            "columnEnd": 47,
            "index": 46,
            "rowBegin": 2,
            "rowEnd": 2,
          },
        },
        "code": "x y -> * y",
        "name": "function",
        "pos": {
          "columnBegin": 26,
          "columnEnd": 27,
          "index": 26,
          "rowBegin": 2,
          "rowEnd": 2,
        },
        "returnType": null,
      },
      "modifier": "const",
      "name": "declaration",
      "pos": {
        "columnBegin": 9,
        "columnEnd": 14,
        "index": 9,
        "rowBegin": 2,
        "rowEnd": 2,
      },
      "variableName": "multiply",
      "variableType": undefined,
    },
    {
      "arguments": [
        {
          "code": "2",
          "name": "integer",
          "pos": {
            "columnBegin": 18,
            "columnEnd": 20,
            "index": 68,
            "rowBegin": 3,
            "rowEnd": 3,
          },
          "typeInfo": TypeInfo {
            "name": "int",
            "position": {
              "columnBegin": 18,
              "columnEnd": 20,
              "index": 68,
              "rowBegin": 3,
              "rowEnd": 3,
            },
            "typeArguments": [],
          },
          "value": "2",
        },
        {
          "code": "5",
          "name": "integer",
          "pos": {
            "columnBegin": 20,
            "columnEnd": 22,
            "index": 70,
            "rowBegin": 3,
            "rowEnd": 3,
          },
          "typeInfo": TypeInfo {
            "name": "int",
            "position": {
              "columnBegin": 20,
              "columnEnd": 22,
              "index": 70,
              "rowBegin": 3,
              "rowEnd": 3,
            },
            "typeArguments": [],
          },
          "value": "5",
        },
      ],
      "baseExpression": {
        "code": "multiply",
        "name": "identifier",
        "pos": {
          "columnBegin": 9,
          "columnEnd": 17,
          "index": 59,
          "rowBegin": 3,
          "rowEnd": 3,
        },
        "variableName": "multiply",
      },
      "code": "multiply 2 5 undefined",
      "name": "function_call",
      "pos": {
        "columnBegin": 9,
        "columnEnd": 23,
        "index": 59,
        "rowBegin": 3,
        "rowEnd": 3,
      },
    },
  ],
  "code": "const multiply undefined x y -> * y multiply 2 5 undefined",
  "name": "program",
  "pos": {
    "columnBegin": 9,
    "columnEnd": 14,
    "index": 9,
    "rowBegin": 2,
    "rowEnd": 2,
  },
}
`;

exports[`Parser: functions Nested function call: 
        const multiply = x: int, y: int -> x * y;
        const add = x: int, y: int -> x + y;
        multiply(2,add(2, 5));
       1`] = `
{
  "children": [
    {
      "code": "const multiply undefined x y -> * y",
      "expression": {
        "arguments": [
          {
            "argumentName": "x",
            "code": "x",
            "name": "function_argument",
            "pos": {
              "columnBegin": 26,
              "columnEnd": 27,
              "index": 26,
              "rowBegin": 2,
              "rowEnd": 2,
            },
            "type": TypeInfo {
              "name": "int",
              "position": {
                "columnBegin": 29,
                "columnEnd": 32,
                "index": 29,
                "rowBegin": 2,
                "rowEnd": 2,
              },
              "typeArguments": [],
            },
          },
          {
            "argumentName": "y",
            "code": "y",
            "name": "function_argument",
            "pos": {
              "columnBegin": 34,
              "columnEnd": 35,
              "index": 34,
              "rowBegin": 2,
              "rowEnd": 2,
            },
            "type": TypeInfo {
              "name": "int",
              "position": {
                "columnBegin": 37,
                "columnEnd": 40,
                "index": 37,
                "rowBegin": 2,
                "rowEnd": 2,
              },
              "typeArguments": [],
            },
          },
        ],
        "body": {
          "children": [
            {
              "code": "x y -> * y",
              "expression": {
                "code": "* y",
                "left": {
                  "code": "x",
                  "name": "identifier",
                  "pos": {
                    "columnBegin": 44,
                    "columnEnd": 45,
                    "index": 44,
                    "rowBegin": 2,
                    "rowEnd": 2,
                  },
                  "variableName": "x",
                },
                "name": "multiplication",
                "pos": {
                  "columnBegin": 46,
                  "columnEnd": 47,
                  "index": 46,
                  "rowBegin": 2,
                  "rowEnd": 2,
                },
                "right": {
                  "code": "y",
                  "name": "identifier",
                  "pos": {
                    "columnBegin": 48,
                    "columnEnd": 49,
                    "index": 48,
                    "rowBegin": 2,
                    "rowEnd": 2,
                  },
                  "variableName": "y",
                },
              },
              "name": "return",
              "pos": {
                "columnBegin": 46,
                "columnEnd": 47,
                "index": 46,
                "rowBegin": 2,
                "rowEnd": 2,
              },
            },
          ],
          "code": "x y -> * y",
          "name": "block",
          "pos": {
            "columnBegin": 46,
            "columnEnd": 47,
            "index": 46,
            "rowBegin": 2,
            "rowEnd": 2,
          },
        },
        "code": "x y -> * y",
        "name": "function",
        "pos": {
          "columnBegin": 26,
          "columnEnd": 27,
          "index": 26,
          "rowBegin": 2,
          "rowEnd": 2,
        },
        "returnType": null,
      },
      "modifier": "const",
      "name": "declaration",
      "pos": {
        "columnBegin": 9,
        "columnEnd": 14,
        "index": 9,
        "rowBegin": 2,
        "rowEnd": 2,
      },
      "variableName": "multiply",
      "variableType": undefined,
    },
    {
      "code": "const add undefined x y -> x",
      "expression": {
        "arguments": [
          {
            "argumentName": "x",
            "code": "x",
            "name": "function_argument",
            "pos": {
              "columnBegin": 21,
              "columnEnd": 22,
              "index": 71,
              "rowBegin": 3,
              "rowEnd": 3,
            },
            "type": TypeInfo {
              "name": "int",
              "position": {
                "columnBegin": 24,
                "columnEnd": 27,
                "index": 74,
                "rowBegin": 3,
                "rowEnd": 3,
              },
              "typeArguments": [],
            },
          },
          {
            "argumentName": "y",
            "code": "y",
            "name": "function_argument",
            "pos": {
              "columnBegin": 29,
              "columnEnd": 30,
              "index": 79,
              "rowBegin": 3,
              "rowEnd": 3,
            },
            "type": TypeInfo {
              "name": "int",
              "position": {
                "columnBegin": 32,
                "columnEnd": 35,
                "index": 82,
                "rowBegin": 3,
                "rowEnd": 3,
              },
              "typeArguments": [],
            },
          },
        ],
        "body": {
          "children": [
            {
              "code": "x y -> x",
              "expression": {
                "code": "x",
                "left": {
                  "code": "x",
                  "name": "identifier",
                  "pos": {
                    "columnBegin": 39,
                    "columnEnd": 40,
                    "index": 89,
                    "rowBegin": 3,
                    "rowEnd": 3,
                  },
                  "variableName": "x",
                },
                "name": "addition",
                "pos": {
                  "columnBegin": 41,
                  "columnEnd": 42,
                  "index": 91,
                  "rowBegin": 3,
                  "rowEnd": 3,
                },
                "right": {
                  "code": "y",
                  "name": "identifier",
                  "pos": {
                    "columnBegin": 43,
                    "columnEnd": 44,
                    "index": 93,
                    "rowBegin": 3,
                    "rowEnd": 3,
                  },
                  "variableName": "y",
                },
              },
              "name": "return",
              "pos": {
                "columnBegin": 41,
                "columnEnd": 42,
                "index": 91,
                "rowBegin": 3,
                "rowEnd": 3,
              },
            },
          ],
          "code": "x y -> x",
          "name": "block",
          "pos": {
            "columnBegin": 41,
            "columnEnd": 42,
            "index": 91,
            "rowBegin": 3,
            "rowEnd": 3,
          },
        },
        "code": "x y -> x",
        "name": "function",
        "pos": {
          "columnBegin": 21,
          "columnEnd": 22,
          "index": 71,
          "rowBegin": 3,
          "rowEnd": 3,
        },
        "returnType": null,
      },
      "modifier": "const",
      "name": "declaration",
      "pos": {
        "columnBegin": 9,
        "columnEnd": 14,
        "index": 59,
        "rowBegin": 3,
        "rowEnd": 3,
      },
      "variableName": "add",
      "variableType": undefined,
    },
    {
      "arguments": [
        {
          "code": "2",
          "name": "integer",
          "pos": {
            "columnBegin": 18,
            "columnEnd": 20,
            "index": 113,
            "rowBegin": 4,
            "rowEnd": 4,
          },
          "typeInfo": TypeInfo {
            "name": "int",
            "position": {
              "columnBegin": 18,
              "columnEnd": 20,
              "index": 113,
              "rowBegin": 4,
              "rowEnd": 4,
            },
            "typeArguments": [],
          },
          "value": "2",
        },
        {
          "arguments": [
            {
              "code": "2",
              "name": "integer",
              "pos": {
                "columnBegin": 24,
                "columnEnd": 26,
                "index": 119,
                "rowBegin": 4,
                "rowEnd": 4,
              },
              "typeInfo": TypeInfo {
                "name": "int",
                "position": {
                  "columnBegin": 24,
                  "columnEnd": 26,
                  "index": 119,
                  "rowBegin": 4,
                  "rowEnd": 4,
                },
                "typeArguments": [],
              },
              "value": "2",
            },
            {
              "code": "5",
              "name": "integer",
              "pos": {
                "columnBegin": 27,
                "columnEnd": 29,
                "index": 122,
                "rowBegin": 4,
                "rowEnd": 4,
              },
              "typeInfo": TypeInfo {
                "name": "int",
                "position": {
                  "columnBegin": 27,
                  "columnEnd": 29,
                  "index": 122,
                  "rowBegin": 4,
                  "rowEnd": 4,
                },
                "typeArguments": [],
              },
              "value": "5",
            },
          ],
          "baseExpression": {
            "code": "add",
            "name": "identifier",
            "pos": {
              "columnBegin": 20,
              "columnEnd": 23,
              "index": 115,
              "rowBegin": 4,
              "rowEnd": 4,
            },
            "variableName": "add",
          },
          "code": "add 2 5 undefined",
          "name": "function_call",
          "pos": {
            "columnBegin": 20,
            "columnEnd": 30,
            "index": 115,
            "rowBegin": 4,
            "rowEnd": 4,
          },
        },
      ],
      "baseExpression": {
        "code": "multiply",
        "name": "identifier",
        "pos": {
          "columnBegin": 9,
          "columnEnd": 17,
          "index": 104,
          "rowBegin": 4,
          "rowEnd": 4,
        },
        "variableName": "multiply",
      },
      "code": "multiply 2 add 2 5 undefined undefined",
      "name": "function_call",
      "pos": {
        "columnBegin": 9,
        "columnEnd": 31,
        "index": 104,
        "rowBegin": 4,
        "rowEnd": 4,
      },
    },
  ],
  "code": "const multiply undefined x y -> * y const add undefined x y -> x multiply 2 add 2 5 undefined undefined",
  "name": "program",
  "pos": {
    "columnBegin": 9,
    "columnEnd": 14,
    "index": 9,
    "rowBegin": 2,
    "rowEnd": 2,
  },
}
`;
